HW9
…
bagged_tree_fit |> 
  extract_fit_parsnip()

parsnip model object

Bagged CART (regression with 50 members)

Variable importance scores include:

# A tibble: 27 × 4
   term                                       value  std.error  used
   <chr>                                      <dbl>      <dbl> <int>
 1 temp_poly_1                         24313170804. 242148377.    50
 2 temp_x_rainfall                     18714401514. 482308736.    50
 3 dew_point_temp_poly_1               18361923598. 247573068.    50
 4 seasons_Winter_x_temp               17964415819. 319644248.    50
 5 seasons_Winter                      14736016480. 409620121.    50
 6 seasons_Winter_x_holiday_No.Holiday  8626669361. 766376995.    50
 7 seasons_Spring_x_temp                8436263764. 817544907.    50
 8 solar_radiation_poly_1               7891716770. 473833439.    50
 9 humidity                             4164768361. 189735375.    50
10 rainfall_poly_1                      3854859919. 171001508.    50
# ℹ 17 more rows
